{
    "name": "Soapbot",
    "url": "https://gitlab.com/Gustavo6046/soapbot",
    "tags": ["politics", "sociology", "management", "community", "social", "society", "discord", "Discord"],
    "description": "A Haxe library to manage simulated political environments. Comes with Discord server management bot.",
    "license": "Apache",
    "version": "0.1.0",
    "classPath": "src",
    "contributors": ["Gustavo6046"],
    "releasenote": "Initial library release.",
    "dependencies": {
        "haxicord": "0.4.5"
    }
}